<?xml version="1.0" encoding="utf-8"?>
<!-- Generator: Adobe Illustrator 15.0.2, SVG Export Plug-In . SVG Version: 6.00 Build 0)  -->
<!DOCTYPE svg PUBLIC "-//W3C//DTD SVG 1.0//EN" "http://www.w3.org/TR/2001/REC-SVG-20010904/DTD/svg10.dtd">
<svg version="1.0" id="Warstwa_1" xmlns="http://www.w3.org/2000/svg" xmlns:xlink="http://www.w3.org/1999/xlink" x="0px" y="0px"
	 width="50.92px" height="51.038px" viewBox="0 0 50.92 51.038" enable-background="new 0 0 50.92 51.038" xml:space="preserve">
<g>
	<g>
		<path fill-rule="evenodd" clip-rule="evenodd" fill="#4E6099" d="M8.505,0h34.029c4.677,0,8.505,3.829,8.505,8.505v34.028
			c0,4.677-3.828,8.505-8.505,8.505H8.505C3.829,51.038,0,47.21,0,42.533V8.505C0,3.829,3.829,0,8.505,0L8.505,0z"/>
		<path fill-rule="evenodd" clip-rule="evenodd" fill="#FFFFFF" d="M27.769,19.548v-2.418c0-1.182,0.783-1.452,1.339-1.452
			c0.55,0,3.391,0,3.391,0v-5.185l-4.668-0.021c-5.192,0-6.365,3.864-6.365,6.338v2.738h-3.002v3.646v2.398h3.023
			c0,6.85,0,15.121,0,15.121h6.052c0,0,0-8.354,0-15.121h4.488l0.216-2.376l0.333-3.668H27.769z"/>
	</g>
</g>
</svg>
